; Engine configuration file.
; It's best edited using the editor UI and not directly,
; since the parameters that go here are not all obvious.
;
; Format:
;   [section] ; section goes between []
;   param=value ; assign values to parameters

config_version=4

_global_script_classes=[  ]
_global_script_class_icons={

}

[application]

config/name="misterious_cleo-godot"
run/main_scene="res://Main.tscn"
boot_splash/image="res://assets/image/bg_menu.png"
config/icon="res://icon.png"

[display]

window/size/width=562
window/size/height=1215
window/dpi/allow_hidpi=true
window/handheld/orientation="sensor_portrait"
window/stretch/mode="2d"
window/stretch/aspect="expand"

[input_devices]

pointing/emulate_touch_from_mouse=true

[rendering]

quality/driver/driver_name="GLES2"
vram_compression/import_etc=true
environment/default_environment="res://default_env.tres"
